…
## Using `readr::read_delim()`

We can also try `read_delim()`, but we need to specify the delimiter, and we 
get some warnings. 

```{r using_readr_read_delim}
df2 <- read_delim(txt_file, locale = locale(encoding = "UTF-16LE"), 
                  col_names = FALSE, na = "", delim = "\t")
problems()
```

```
## # A tibble: 5,458 × 5
##      row   col expected           actual file                              
##    <int> <int> <chr>              <chr>  <chr>                             
##  1     1     4 1/0/T/F/TRUE/FALSE ""     /tmp/Rtmp76Hngx/file2d7533523b5ac3
##  2     1     5 1/0/T/F/TRUE/FALSE ""     /tmp/Rtmp76Hngx/file2d7533523b5ac3
##  3     1     6 1/0/T/F/TRUE/FALSE ""     /tmp/Rtmp76Hngx/file2d7533523b5ac3
##  4     1     9 1/0/T/F/TRUE/FALSE ""     /tmp/Rtmp76Hngx/file2d7533523b5ac3
##  5     1    13 1/0/T/F/TRUE/FALSE ""     /tmp/Rtmp76Hngx/file2d7533523b5ac3
##  6     1    15 1/0/T/F/TRUE/FALSE ""     /tmp/Rtmp76Hngx/file2d7533523b5ac3
##  7     1    16 1/0/T/F/TRUE/FALSE ""     /tmp/Rtmp76Hngx/file2d7533523b5ac3
##  8     1    17 1/0/T/F/TRUE/FALSE ""     /tmp/Rtmp76Hngx/file2d7533523b5ac3
##  9     1    18 1/0/T/F/TRUE/FALSE ""     /tmp/Rtmp76Hngx/file2d7533523b5ac3
## 10     1    21 1/0/T/F/TRUE/FALSE ""     /tmp/Rtmp76Hngx/file2d7533523b5ac3
## # … with 5,448 more rows
## # ℹ Use `print(n = ...)` to see more rows
```
…
